{
  "uid" : "5ac5d0cf0c1a3820",
  "name" : "TC001:Validate API Test",
  "fullName" : "TC001:Validate API Test",
  "historyId" : "a1430cd4396ea6d56fa0213f6fd58bff",
  "time" : {
    "start" : 1644811630702,
    "stop" : 1644811632545,
    "duration" : 1843
  },
  "status" : "passed",
  "flaky" : false,
  "newFailed" : false,
  "newBroken" : false,
  "newPassed" : false,
  "retriesCount" : 0,
  "retriesStatusChange" : false,
  "beforeStages" : [ ],
  "testStage" : {
    "status" : "passed",
    "steps" : [ {
      "name" : "\"before each\" hook",
      "time" : {
        "start" : 1644811630706,
        "stop" : 1644811630707,
        "duration" : 1
      },
      "status" : "passed",
      "steps" : [ ],
      "attachments" : [ ],
      "parameters" : [ ],
      "stepsCount" : 0,
      "hasContent" : false,
      "shouldDisplayMessage" : false,
      "attachmentsCount" : 0
    }, {
      "name" : "Then User Validates Post Call",
      "time" : {
        "start" : 1644811630729,
        "stop" : 1644811632216,
        "duration" : 1487
      },
      "status" : "passed",
      "steps" : [ {
        "name" : "log https://gorest.co.in/public/v1/users",
        "time" : {
          "start" : 1644811630733,
          "stop" : 1644811630741,
          "duration" : 8
        },
        "status" : "passed",
        "steps" : [ ],
        "attachments" : [ ],
        "parameters" : [ ],
        "stepsCount" : 0,
        "hasContent" : false,
        "shouldDisplayMessage" : false,
        "attachmentsCount" : 0
      }, {
        "name" : "POST 201 https://gorest.co.in/public/v1/users",
        "time" : {
          "start" : 1644811630743,
          "stop" : 1644811632161,
          "duration" : 1418
        },
        "status" : "passed",
        "steps" : [ ],
        "attachments" : [ ],
        "parameters" : [ ],
        "stepsCount" : 0,
        "hasContent" : false,
        "shouldDisplayMessage" : false,
        "attachmentsCount" : 0
      }, {
        "name" : "log {\"body\":{\"meta\":null,\"data\":{\"id\":4124,\"name\":\"xHVIhTxYKA\",\"email\":\"uiLk8SbXak@gmail.com\",\"gender\":\"male\",\"status\":\"active\"}},\"headers\":{\"server\":\"nginx\",\"date\":\"Mon, 14 Feb 2022 04:07:11 GMT\",\"content-type\":\"application/json; charset=utf-8\",\"transfer-encoding\":\"chunked\",\"connection\":\"keep-alive\",\"x-frame-options\":\"SAMEORIGIN\",\"x-xss-protection\":\"0\",\"x-content-type-options\":\"nosniff\",\"x-download-options\":\"noopen\",\"x-permitted-cross-domain-policies\":\"none\",\"referrer-policy\":\"strict-origin-when-cross-origin\",\"x-ratelimit-limit\":\"90\",\"x-ratelimit-remaining\":\"88\",\"x-ratelimit-reset\":\"1\",\"location\":\"https://gorest.co.in/public/v1/users/4124\",\"etag\":\"W/\\\"3b79f9d2a5bba4e37936121011a99735\\\"\",\"cache-control\":\"max-age=0, private, must-revalidate\",\"x-request-id\":\"47013ace-ea1d-43ea-9379-b66804cadbea\",\"x-runtime\":\"0.023706\",\"strict-transport-security\":\"max-age=63072000; includeSubDomains\",\"vary\":\"Origin\"},\"status\":201,\"statusText\":\"Created\",\"isOkStatusCode\":true,\"requestHeaders\":{\"Connection\":\"keep-alive\",\"authorization\":\"Bearer 4b4c8f088b43abd2c4328d13f40228324cda0ef0b05a86faaacb6fbd31a3124d\",\"user-agent\":\"Mozilla/5.0 (Windows NT 10.0; Win64; x64) AppleWebKit/537.36 (KHTML, like Gecko) Cypress/9.4.1 Chrome/94.0.4606.81 Electron/15.3.4 Safari/537.36\",\"accept\":\"*/*\",\"accept-encoding\":\"gzip, deflate\",\"content-type\":\"application/json\",\"content-length\":86},\"requestBody\":\"{\\\"name\\\":\\\"xHVIhTxYKA\\\",\\\"email\\\":\\\"uiLk8SbXak@gmail.com\\\",\\\"gender\\\":\\\"Male\\\",\\\"status\\\":\\\"Active\\\"}\",\"duration\":1384,\"allRequestResponses\":[{\"Request Body\":\"{\\\"name\\\":\\\"xHVIhTxYKA\\\",\\\"email\\\":\\\"uiLk8SbXak@gmail.com\\\",\\\"gender\\\":\\\"Male\\\",\\\"status\\\":\\\"Active\\\"}\",\"Request Headers\":{\"Connection\":\"keep-alive\",\"authorization\":\"Bearer 4b4c8f088b43abd2c4328d13f40228324cda0ef0b05a86faaacb6fbd31a3124d\",\"user-agent\":\"Mozilla/5.0 (Windows NT 10.0; Win64; x64) AppleWebKit/537.36 (KHTML, like Gecko) Cypress/9.4.1 Chrome/94.0.4606.81 Electron/15.3.4 Safari/537.36\",\"accept\":\"*/*\",\"accept-encoding\":\"gzip, deflate\",\"content-type\":\"application/json\",\"content-length\":86},\"Request URL\":\"https://gorest.co.in/public/v1/users\",\"Response Body\":{\"meta\":null,\"data\":{\"id\":4124,\"name\":\"xHVIhTxYKA\",\"email\":\"uiLk8SbXak@gmail.com\",\"gender\":\"male\",\"status\":\"active\"}},\"Response Headers\":{\"server\":\"nginx\",\"date\":\"Mon, 14 Feb 2022 04:07:11 GMT\",\"content-type\":\"application/json; charset=utf-8\",\"transfer-encoding\":\"chunked\",\"connection\":\"keep-alive\",\"x-frame-options\":\"SAMEORIGIN\",\"x-xss-protection\":\"0\",\"x-content-type-options\":\"nosniff\",\"x-download-options\":\"noopen\",\"x-permitted-cross-domain-policies\":\"none\",\"referrer-policy\":\"strict-origin-when-cross-origin\",\"x-ratelimit-limit\":\"90\",\"x-ratelimit-remaining\":\"88\",\"x-ratelimit-reset\":\"1\",\"location\":\"https://gorest.co.in/public/v1/users/4124\",\"etag\":\"W/\\\"3b79f9d2a5bba4e37936121011a99735\\\"\",\"cache-control\":\"max-age=0, private, must-revalidate\",\"x-request-id\":\"47013ace-ea1d-43ea-9379-b66804cadbea\",\"x-runtime\":\"0.023706\",\"strict-transport-security\":\"max-age=63072000; includeSubDomains\",\"vary\":\"Origin\"},\"Response Status\":201}]}",
        "time" : {
          "start" : 1644811632184,
          "stop" : 1644811632199,
          "duration" : 15
        },
        "status" : "passed",
        "steps" : [ ],
        "attachments" : [ ],
        "parameters" : [ ],
        "stepsCount" : 0,
        "hasContent" : false,
        "shouldDisplayMessage" : false,
        "attachmentsCount" : 0
      }, {
        "name" : "assert expected **201** to equal **201**",
        "time" : {
          "start" : 1644811632199,
          "stop" : 1644811632200,
          "duration" : 1
        },
        "status" : "passed",
        "steps" : [ ],
        "attachments" : [ ],
        "parameters" : [ {
          "name" : "actual",
          "value" : "201"
        }, {
          "name" : "expected",
          "value" : "201"
        } ],
        "stepsCount" : 0,
        "hasContent" : true,
        "shouldDisplayMessage" : false,
        "attachmentsCount" : 0
      } ],
      "attachments" : [ ],
      "parameters" : [ ],
      "stepsCount" : 4,
      "hasContent" : true,
      "shouldDisplayMessage" : false,
      "attachmentsCount" : 0
    }, {
      "name" : "Then User Validates Get Call",
      "time" : {
        "start" : 1644811632216,
        "stop" : 1644811632521,
        "duration" : 305
      },
      "status" : "passed",
      "steps" : [ {
        "name" : "GET 200 https://gorest.co.in/public/v1/users",
        "time" : {
          "start" : 1644811632218,
          "stop" : 1644811632497,
          "duration" : 279
        },
        "status" : "passed",
        "steps" : [ ],
        "attachments" : [ ],
        "parameters" : [ ],
        "stepsCount" : 0,
        "hasContent" : false,
        "shouldDisplayMessage" : false,
        "attachmentsCount" : 0
      }, {
        "name" : "log {\"body\":{\"meta\":{\"pagination\":{\"total\":3959,\"pages\":198,\"page\":1,\"limit\":20,\"links\":{\"previous\":null,\"current\":\"https://gorest.co.in/public/v1/users?page=1\",\"next\":\"https://gorest.co.in/public/v1/users?page=2\"}}},\"data\":[{\"id\":4124,\"name\":\"xHVIhTxYKA\",\"email\":\"uiLk8SbXak@gmail.com\",\"gender\":\"male\",\"status\":\"active\"},{\"id\":3990,\"name\":\"Rakesh Bhattacharya\",\"email\":\"bhattacharya_rakesh@blick-bashirian.com\",\"gender\":\"male\",\"status\":\"active\"},{\"id\":3989,\"name\":\"Bhaves Jain\",\"email\":\"bhaves_jain@heaney.org\",\"gender\":\"female\",\"status\":\"inactive\"},{\"id\":3988,\"name\":\"Sucheta Varrier\",\"email\":\"sucheta_varrier@aufderhar-hilll.co\",\"gender\":\"female\",\"status\":\"inactive\"},{\"id\":3987,\"name\":\"Kalinda Saini\",\"email\":\"kalinda_saini@metz-russel.org\",\"gender\":\"male\",\"status\":\"active\"},{\"id\":3986,\"name\":\"Pranay Shah\",\"email\":\"shah_pranay@buckridge.biz\",\"gender\":\"male\",\"status\":\"inactive\"},{\"id\":3985,\"name\":\"Bhisham Reddy\",\"email\":\"reddy_bhisham@cremin.com\",\"gender\":\"male\",\"status\":\"active\"},{\"id\":3984,\"name\":\"Dhara Bandopadhyay\",\"email\":\"dhara_bandopadhyay@mayert.biz\",\"gender\":\"female\",\"status\":\"active\"},{\"id\":3983,\"name\":\"Amritambu Embranthiri II\",\"email\":\"embranthiri_ii_amritambu@ritchie.io\",\"gender\":\"male\",\"status\":\"active\"},{\"id\":3982,\"name\":\"Rageshwari Acharya\",\"email\":\"rageshwari_acharya@barrows.io\",\"gender\":\"female\",\"status\":\"active\"},{\"id\":3981,\"name\":\"Sloka Guneta Jr.\",\"email\":\"guneta_sloka_jr@keebler.co\",\"gender\":\"male\",\"status\":\"inactive\"},{\"id\":3980,\"name\":\"Chandramani Bhattathiri\",\"email\":\"chandramani_bhattathiri@legros.net\",\"gender\":\"male\",\"status\":\"active\"},{\"id\":3979,\"name\":\"Ganapati Deshpande\",\"email\":\"ganapati_deshpande@marks.net\",\"gender\":\"male\",\"status\":\"inactive\"},{\"id\":3978,\"name\":\"Mrs. Som Kakkar\",\"email\":\"som_kakkar_mrs@sipes-goodwin.net\",\"gender\":\"male\",\"status\":\"active\"},{\"id\":3977,\"name\":\"Amb. Chandraketu Varrier\",\"email\":\"chandraketu_amb_varrier@johnston.biz\",\"gender\":\"female\",\"status\":\"inactive\"},{\"id\":3976,\"name\":\"Vishnu Desai\",\"email\":\"desai_vishnu@lynch.net\",\"gender\":\"female\",\"status\":\"active\"},{\"id\":3975,\"name\":\"Eekalabya Rana\",\"email\":\"rana_eekalabya@dach.biz\",\"gender\":\"male\",\"status\":\"inactive\"},{\"id\":3974,\"name\":\"Trilochan Ganaka DVM\",\"email\":\"dvm_ganaka_trilochan@larkin.info\",\"gender\":\"female\",\"status\":\"active\"},{\"id\":3973,\"name\":\"Manjusha Chaturvedi\",\"email\":\"chaturvedi_manjusha@bogan.co\",\"gender\":\"female\",\"status\":\"inactive\"},{\"id\":3972,\"name\":\"Jitendra Mishra\",\"email\":\"mishra_jitendra@schultz.info\",\"gender\":\"male\",\"status\":\"inactive\"}]},\"headers\":{\"server\":\"nginx\",\"date\":\"Mon, 14 Feb 2022 04:07:11 GMT\",\"content-type\":\"application/json; charset=utf-8\",\"transfer-encoding\":\"chunked\",\"connection\":\"keep-alive\",\"vary\":\"Accept-Encoding, Origin\",\"x-frame-options\":\"SAMEORIGIN\",\"x-xss-protection\":\"0\",\"x-content-type-options\":\"nosniff\",\"x-download-options\":\"noopen\",\"x-permitted-cross-domain-policies\":\"none\",\"referrer-policy\":\"strict-origin-when-cross-origin\",\"x-ratelimit-limit\":\"90\",\"x-ratelimit-remaining\":\"89\",\"x-ratelimit-reset\":\"2\",\"etag\":\"W/\\\"1fb2e0f16881cc40ca3f4c6e5fd807be\\\"\",\"cache-control\":\"max-age=0, private, must-revalidate\",\"x-request-id\":\"8f8eb8bc-dd30-4753-9e41-1aa8979b764e\",\"x-runtime\":\"0.025342\",\"strict-transport-security\":\"max-age=63072000; includeSubDomains\",\"content-encoding\":\"gzip\"},\"status\":200,\"statusText\":\"OK\",\"isOkStatusCode\":true,\"requestHeaders\":{\"Connection\":\"keep-alive\",\"authorization\":\"Bearer 4b4c8f088b43abd2c4328d13f40228324cda0ef0b05a86faaacb6fbd31a3124d\",\"user-agent\":\"Mozilla/5.0 (Windows NT 10.0; Win64; x64) AppleWebKit/537.36 (KHTML, like Gecko) Cypress/9.4.1 Chrome/94.0.4606.81 Electron/15.3.4 Safari/537.36\",\"accept\":\"*/*\",\"accept-encoding\":\"gzip, deflate\"},\"duration\":268,\"allRequestResponses\":[{\"Request Body\":null,\"Request Headers\":{\"Connection\":\"keep-alive\",\"authorization\":\"Bearer 4b4c8f088b43abd2c4328d13f40228324cda0ef0b05a86faaacb6fbd31a3124d\",\"user-agent\":\"Mozilla/5.0 (Windows NT 10.0; Win64; x64) AppleWebKit/537.36 (KHTML, like Gecko) Cypress/9.4.1 Chrome/94.0.4606.81 Electron/15.3.4 Safari/537.36\",\"accept\":\"*/*\",\"accept-encoding\":\"gzip, deflate\"},\"Request URL\":\"https://gorest.co.in/public/v1/users\",\"Response Body\":\"{\\\"meta\\\":{\\\"pagination\\\":{\\\"total\\\":3959,\\\"pages\\\":198,\\\"page\\\":1,\\\"limit\\\":20,\\\"links\\\":{\\\"previous\\\":null,\\\"current\\\":\\\"https://gorest.co.in/public/v1/users?page=1\\\",\\\"next\\\":\\\"https://gorest.co.in/public/v1/users?page=2\\\"}}},\\\"data\\\":[{\\\"id\\\":4124,\\\"name\\\":\\\"xHVIhTxYKA\\\",\\\"email\\\":\\\"uiLk8SbXak@gmail.com\\\",\\\"gender\\\":\\\"male\\\",\\\"status\\\":\\\"active\\\"},{\\\"id\\\":3990,\\\"name\\\":\\\"Rakesh Bhattacharya\\\",\\\"email\\\":\\\"bhattacharya_rakesh@blick-bashirian.com\\\",\\\"gender\\\":\\\"male\\\",\\\"status\\\":\\\"active\\\"},{\\\"id\\\":3989,\\\"name\\\":\\\"Bhaves Jain\\\",\\\"email\\\":\\\"bhaves_jain@heaney.org\\\",\\\"gender\\\":\\\"female\\\",\\\"status\\\":\\\"inactive\\\"},{\\\"id\\\":3988,\\\"name\\\":\\\"Sucheta Varrier\\\",\\\"email\\\":\\\"sucheta_varrier@aufderhar-hilll.co\\\",\\\"gender\\\":\\\"female\\\",\\\"status\\\":\\\"inactive\\\"},{\\\"id\\\":3987,\\\"name\\\":\\\"Kalinda Saini\\\",\\\"email\\\":\\\"kalinda_saini@metz-russel.org\\\",\\\"gender\\\":\\\"male\\\",\\\"status\\\":\\\"active\\\"},{\\\"id\\\":3986,\\\"name\\\":\\\"Pranay Shah\\\",\\\"email\\\":\\\"shah_pranay@buckridge.biz\\\",\\\"gender\\\":\\\"male\\\",\\\"status\\\":\\\"inactive\\\"},{\\\"id\\\":3985,\\\"name\\\":\\\"Bhisham Reddy\\\",\\\"email\\\":\\\"reddy_bhisham@cremin.com\\\",\\\"gender\\\":\\\"male\\\",\\\"status\\\":\\\"active\\\"},{\\\"id\\\":3984,\\\"name\\\":\\\"Dhara Bandopadhyay\\\",\\\"email\\\":\\\"dhara_bandopadhyay@mayert.biz\\\",\\\"gender\\\":\\\"female\\\",\\\"status\\\":\\\"active\\\"},{\\\"id\\\":3983,\\\"name\\\":\\\"Amritambu Embranthiri II\\\",\\\"email\\\":\\\"embranthiri_ii_amritambu@ritchie.io\\\",\\\"gender\\\":\\\"male\\\",\\\"status\\\":\\\"active\\\"},{\\\"id\\\":3982,\\\"name\\\":\\\"Rageshwari Acharya\\\",\\\"email\\\":\\\"rageshwari_acharya@barrows.io\\\",\\\"gender\\\":\\\"female\\\",\\\"status\\\":\\\"active\\\"},{\\\"id\\\":3981,\\\"name\\\":\\\"Sloka Guneta Jr.\\\",\\\"email\\\":\\\"guneta_sloka_jr@keebler.co\\\",\\\"gender\\\":\\\"male\\\",\\\"status\\\":\\\"inactive\\\"},{\\\"id\\\":3980,\\\"name\\\":\\\"Chandramani Bhattathiri\\\",\\\"email\\\":\\\"chandramani_bhattathiri@legros.net\\\",\\\"gender\\\":\\\"male\\\",\\\"status\\\":\\\"active\\\"},{\\\"id\\\":3979,\\\"name\\\":\\\"Ganapati Deshpande\\\",\\\"email\\\":\\\"ganapati_deshpande@marks.net\\\",\\\"gender\\\":\\\"male\\\",\\\"status\\\":\\\"inactive\\\"},{\\\"id\\\":3978,\\\"name\\\":\\\"Mrs. Som Kakkar\\\",\\\"email\\\":\\\"som_kakkar_mrs@sipes-goodwin.net\\\",\\\"gender\\\":\\\"male\\\",\\\"status\\\":\\\"active\\\"},{\\\"id\\\":3977,\\\"name\\\":\\\"Amb. Chandraketu Varrier\\\",\\\"email\\\":\\\"chandraketu_amb_varrier@johnston.biz\\\",\\\"gender\\\":\\\"female\\\",\\\"status\\\":\\\"inactive\\\"},{\\\"id\\\":3976,\\\"name\\\":\\\"Vishnu Desai\\\",\\\"email\\\":\\\"desai_vishnu@lynch.net\\\",\\\"gender\\\":\\\"female\\\",\\\"status\\\":\\\"active\\\"},{\\\"id\\\":3975,\\\"name\\\":\\\"Eekalabya Rana\\\",\\\"email\\\":\\\"rana_eekalabya@dach.biz\\\",\\\"gender\\\":\\\"male\\\",\\\"status\\\":\\\"inactive\\\"},{\\\"id\\\":3974,\\\"name\\\":\\\"Trilochan Ganaka DVM\\\",\\\"email\\\":\\\"dvm_ganaka_trilochan@larkin.info\\\",\\\"gender\\\":\\\"female\\\",\\\"status\\\":\\\"active\\\"},{\\\"id\\\":3973,\\\"name\\\":\\\"Manjusha Chaturvedi\\\",\\\"email\\\":\\\"chaturvedi_manjusha@bogan.co\\\",\\\"gender\\\":\\\"female\\\",\\\"status\\\":\\\"inactive\\\"},{\\\"id\\\":3972,\\\"name\\\":\\\"Jitendra Mishra\\\",\\\"email\\\":\\\"mishra_jitendra@schultz.info\\\",\\\"gender\\\":\\\"male\\\",\\\"status\\\":\\\"inactive\\\"}]}\",\"Response Headers\":{\"server\":\"nginx\",\"date\":\"Mon, 14 Feb 2022 04:07:11 GMT\",\"content-type\":\"application/json; charset=utf-8\",\"transfer-encoding\":\"chunked\",\"connection\":\"keep-alive\",\"vary\":\"Accept-Encoding, Origin\",\"x-frame-options\":\"SAMEORIGIN\",\"x-xss-protection\":\"0\",\"x-content-type-options\":\"nosniff\",\"x-download-options\":\"noopen\",\"x-permitted-cross-domain-policies\":\"none\",\"referrer-policy\":\"strict-origin-when-cross-origin\",\"x-ratelimit-limit\":\"90\",\"x-ratelimit-remaining\":\"89\",\"x-ratelimit-reset\":\"2\",\"etag\":\"W/\\\"1fb2e0f16881cc40ca3f4c6e5fd807be\\\"\",\"cache-control\":\"max-age=0, private, must-revalidate\",\"x-request-id\":\"8f8eb8bc-dd30-4753-9e41-1aa8979b764e\",\"x-runtime\":\"0.025342\",\"strict-transport-security\":\"max-age=63072000; includeSubDomains\",\"content-encoding\":\"gzip\"},\"Response Status\":200}]}",
        "time" : {
          "start" : 1644811632503,
          "stop" : 1644811632516,
          "duration" : 13
        },
        "status" : "passed",
        "steps" : [ ],
        "attachments" : [ ],
        "parameters" : [ ],
        "stepsCount" : 0,
        "hasContent" : false,
        "shouldDisplayMessage" : false,
        "attachmentsCount" : 0
      }, {
        "name" : "assert expected **200** to equal **200**",
        "time" : {
          "start" : 1644811632516,
          "stop" : 1644811632516,
          "duration" : 0
        },
        "status" : "passed",
        "steps" : [ ],
        "attachments" : [ ],
        "parameters" : [ {
          "name" : "actual",
          "value" : "200"
        }, {
          "name" : "expected",
          "value" : "200"
        } ],
        "stepsCount" : 0,
        "hasContent" : true,
        "shouldDisplayMessage" : false,
        "attachmentsCount" : 0
      } ],
      "attachments" : [ ],
      "parameters" : [ ],
      "stepsCount" : 3,
      "hasContent" : true,
      "shouldDisplayMessage" : false,
      "attachmentsCount" : 0
    }, {
      "name" : "Then User Validates Put Call",
      "time" : {
        "start" : 1644811632521,
        "stop" : 1644811632535,
        "duration" : 14
      },
      "status" : "passed",
      "steps" : [ {
        "name" : "log Put Method",
        "time" : {
          "start" : 1644811632522,
          "stop" : 1644811632529,
          "duration" : 7
        },
        "status" : "passed",
        "steps" : [ ],
        "attachments" : [ ],
        "parameters" : [ ],
        "stepsCount" : 0,
        "hasContent" : false,
        "shouldDisplayMessage" : false,
        "attachmentsCount" : 0
      } ],
      "attachments" : [ ],
      "parameters" : [ ],
      "stepsCount" : 1,
      "hasContent" : true,
      "shouldDisplayMessage" : false,
      "attachmentsCount" : 0
    }, {
      "name" : "Then User Validates Delete Call",
      "time" : {
        "start" : 1644811632535,
        "stop" : 1644811632544,
        "duration" : 9
      },
      "status" : "passed",
      "steps" : [ {
        "name" : "log Delete Method",
        "time" : {
          "start" : 1644811632536,
          "stop" : 1644811632542,
          "duration" : 6
        },
        "status" : "passed",
        "steps" : [ ],
        "attachments" : [ ],
        "parameters" : [ ],
        "stepsCount" : 0,
        "hasContent" : false,
        "shouldDisplayMessage" : false,
        "attachmentsCount" : 0
      } ],
      "attachments" : [ ],
      "parameters" : [ ],
      "stepsCount" : 1,
      "hasContent" : true,
      "shouldDisplayMessage" : false,
      "attachmentsCount" : 0
    }, {
      "name" : "\"after each\" hook",
      "time" : {
        "start" : 1644811632573,
        "stop" : 1644811632576,
        "duration" : 3
      },
      "status" : "passed",
      "steps" : [ ],
      "attachments" : [ ],
      "parameters" : [ ],
      "stepsCount" : 0,
      "hasContent" : false,
      "shouldDisplayMessage" : false,
      "attachmentsCount" : 0
    } ],
    "attachments" : [ ],
    "parameters" : [ ],
    "stepsCount" : 15,
    "hasContent" : true,
    "shouldDisplayMessage" : false,
    "attachmentsCount" : 0
  },
  "afterStages" : [ ],
  "labels" : [ {
    "name" : "suite",
    "value" : "API"
  }, {
    "name" : "feature",
    "value" : "Test E2E"
  }, {
    "name" : "tag",
    "value" : "Regression"
  }, {
    "name" : "resultFormat",
    "value" : "allure2"
  } ],
  "parameters" : [ ],
  "links" : [ ],
  "hidden" : true,
  "retry" : true,
  "extra" : {
    "categories" : [ ],
    "tags" : [ "Regression" ]
  },
  "source" : "5ac5d0cf0c1a3820.json",
  "parameterValues" : [ ]
}